state,hops,pred
NY,0,None
CT,1,NY
PA,1,NY
NJ,1,NY
VT,1,NY
MA,1,NY
WV,2,PA
OH,2,PA
NH,2,MA
DE,2,NJ
RI,2,CT
MD,2,PA
VA,3,MD
ME,3,NH
MI,3,OH
IN,3,OH
DC,3,MD
KY,3,OH
WI,4,MI
NC,4,VA
IL,4,IN
MO,4,KY
TN,4,VA
KS,5,MO
NE,5,MO
AL,5,TN
AR,5,TN
SC,5,NC
MN,5,WI
GA,5,NC
OK,5,MO
MS,5,TN
IA,5,IL
FL,6,GA
ND,6,MN
NM,6,OK
TX,6,AR
LA,6,AR
SD,6,IA
CO,6,KS
WY,6,NE
AZ,7,NM
ID,7,WY
MT,7,SD
UT,7,CO
CA,8,AZ
OR,8,ID
NV,8,UT
WA,8,ID
